{
	"info": {
		"_postman_id": "b7812ce0-a274-46de-aa9b-42ac91edee80",
		"name": "Git_API",
		"schema": "https://schema.getpostman.com/json/collection/v2.1.0/collection.json",
		"_exporter_id": "29395343"
	},
	"item": [
		{
			"name": "Get_Repository",
			"event": [
				{
					"listen": "test",
					"script": {
						"exec": [
							"// Validate Status code\r",
							"pm.test(\"Status code is 200\", function () {\r",
							"    pm.response.to.have.status(200);\r",
							"});\r",
							"//Extract expected results\r",
							"const id = [708971950]\r",
							"const name = [\"Git_API\"]\r",
							"//Extract response body\r",
							"var res_body = pm.response.json();\r",
							"var count = Object.keys(res_body).length;\r",
							"\r",
							"for(i=0 ; i<count ; i++)\r",
							"{\r",
							"    var res_id = res_body[i].id;\r",
							"    var res_name = res_body[i].name;\r",
							"    var exp_id = id[i];\r",
							"    var exp_name = name[i];\r",
							"    pm.test(\"Validate id of repo\"+i, function(){\r",
							"        pm.expect(res_id).to.eql(exp_id);\r",
							"    });\r",
							"    pm.test(\"Validate name of repo\"+i, function(){\r",
							"        pm.expect(res_name).to.eql(exp_name);\r",
							"    });\r",
							"\r",
							"}\r",
							"postman.setNextRequest(\"Create_Repository\");"
						],
						"type": "text/javascript"
					}
				}
			],
			"request": {
				"method": "GET",
				"header": [],
				"url": {
					"raw": "{{Git_Get_Url}}",
					"host": [
						"{{Git_Get_Url}}"
					]
				}
			},
			"response": []
		},
		{
			"name": "Create_Repository",
			"event": [
				{
					"listen": "test",
					"script": {
						"exec": [
							"//Validate status code\r",
							"pm.test(\"Status code is 201\", function () {\r",
							"    pm.response.to.have.status(201);\r",
							"});\r",
							"//Extract request body\r",
							"var req_body = pm.request.body.raw;\r",
							"req_body = JSON.parse(req_body);\r",
							"var req_name = req_body.name;\r",
							"var req_description = req_body.description;\r",
							"var req_private = req_body.private;\r",
							"\r",
							"//Extract request body\r",
							"var res_body = pm.response.json();\r",
							"var res_name = res_body.name;\r",
							"var res_description = res_body.description;\r",
							"var res_private = res_body.private;\r",
							"var res_id = res_body.id;\r",
							"pm.collectionVariables.set(\"repo_id\",res_id);\r",
							"\r",
							"//Validate response body\r",
							"pm.test(\"Validate Name of Repository\", function(){\r",
							"    pm.expect(res_name).to.eql(req_name);\r",
							"});\r",
							"pm.test(\"Validate description of Repository\", function(){\r",
							"    pm.expect(res_description).to.eql(req_description);\r",
							"});\r",
							"pm.test(\"Validate private of Repository\", function(){\r",
							"    pm.expect(res_private).to.eql(req_private);\r",
							"});\r",
							"pm.test(\"Validate id of Repository\", function(){\r",
							"    pm.expect(res_id).to.not.null;\r",
							"    pm.expect(res_id).to.not.eql(0);\r",
							"});\r",
							"postman.setNextRequest(\"Update_Repository\");"
						],
						"type": "text/javascript"
					}
				}
			],
			"request": {
				"method": "POST",
				"header": [],
				"body": {
					"mode": "raw",
					"raw": "{\r\n    \"name\":\"{{name}}\",\r\n    \"description\":\"{{description}}\",\r\n    \"private\":{{private}}\r\n}",
					"options": {
						"raw": {
							"language": "json"
						}
					}
				},
				"url": {
					"raw": "{{Git_Post_Url}}",
					"host": [
						"{{Git_Post_Url}}"
					]
				}
			},
			"response": []
		},
		{
			"name": "Update_Repository",
			"event": [
				{
					"listen": "test",
					"script": {
						"exec": [
							"//Validate status code\r",
							"pm.test(\"Status code is 200\", function () {\r",
							"    pm.response.to.have.status(200);\r",
							"});\r",
							"\r",
							"//Extract request body\r",
							"var req_body = pm.request.body.raw;\r",
							"req_body = JSON.parse(req_body);\r",
							"var req_name = req_body.name;\r",
							"var req_description = req_body.description;\r",
							"var req_private = req_body.private;\r",
							"\r",
							"//Extract request body\r",
							"var res_body = pm.response.json();\r",
							"var res_name = res_body.name;\r",
							"var res_description = res_body.description;\r",
							"var res_private = res_body.private;\r",
							"var res_id = res_body.id;\r",
							"\r",
							"//Validate response body\r",
							"pm.test(\"Validate Name of Repository\", function(){\r",
							"    pm.expect(res_name).to.eql(req_name);\r",
							"});\r",
							"pm.test(\"Validate description of Repository\", function(){\r",
							"    pm.expect(res_description).to.eql(req_description);\r",
							"});\r",
							"pm.test(\"Validate private of Repository\", function(){\r",
							"    pm.expect(res_private).to.eql(req_private);\r",
							"});\r",
							"pm.test(\"Validate id of Repository\", function(){\r",
							"    pm.expect(res_id).to.not.null;\r",
							"    pm.expect(res_id).to.not.eql(0);\r",
							"});\r",
							"postman.setNextRequest(\"Delete_Repository\");"
						],
						"type": "text/javascript"
					}
				}
			],
			"request": {
				"method": "PATCH",
				"header": [],
				"body": {
					"mode": "raw",
					"raw": "{\r\n    \"name\" : \"{{name}}\",\r\n    \"private\": {{update_private}},\r\n    \"description\" : \"{{update_description}}\"\r\n}",
					"options": {
						"raw": {
							"language": "json"
						}
					}
				},
				"url": {
					"raw": "{{Git_Patch_Url}}",
					"host": [
						"{{Git_Patch_Url}}"
					]
				}
			},
			"response": []
		},
		{
			"name": "Delete_Repository",
			"event": [
				{
					"listen": "test",
					"script": {
						"exec": [
							"//Validate status code\r",
							"pm.test(\"Status code is 204\", function () {\r",
							"    pm.response.to.have.status(204);\r",
							"});"
						],
						"type": "text/javascript"
					}
				}
			],
			"request": {
				"method": "DELETE",
				"header": [],
				"url": {
					"raw": "{{Git_Delete_Url}}",
					"host": [
						"{{Git_Delete_Url}}"
					]
				}
			},
			"response": []
		}
	],
	"auth": {
		"type": "bearer",
		"bearer": [
			{
				"key": "token",
				"value": "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",
				"type": "string"
			}
		]
	},
	"event": [
		{
			"listen": "prerequest",
			"script": {
				"type": "text/javascript",
				"exec": [
					""
				]
			}
		},
		{
			"listen": "test",
			"script": {
				"type": "text/javascript",
				"exec": [
					""
				]
			}
		}
	],
	"variable": [
		{
			"key": "repo_id",
			"value": ""
		}
	]
}